…
``` r
state_areas <- state.area
names(state_areas) <- state.name

state_areas |>
    cmap_df(
        ~ c(
            state = .nm,
            larger_than_median_state = .x > median(.col)
        )
    )
#> # A tibble: 50 × 2
#>    state       larger_than_median_state
#>    <chr>       <chr>                   
#>  1 Alabama     FALSE                   
#>  2 Alaska      TRUE                    
#>  3 Arizona     TRUE                    
#>  4 Arkansas    FALSE                   
#>  5 California  TRUE                    
#>  6 Colorado    TRUE                    
#>  7 Connecticut FALSE                   
#>  8 Delaware    FALSE                   
#>  9 Florida     TRUE                    
#> 10 Georgia     TRUE                    
#> # ℹ 40 more rows
```
…
